%feature("docstring") gum::LoopySamplingInference<float,gum::WeightedSampling>
"
Class used for inferences using a loopy version of weighted sampling.

LoopyWeightedSampling(bn) -> LoopyWeightedSampling
    Parameters:
        * **bn** (*pyAgrum.BayesNet*) -- a Bayesian network
"
