%feature("docstring") gum::ShaferShenoyInference
"
Class used for Shafer-Shenoy inferences.

ShaferShenoyInference(bn) -> ShaferShenoyInference
    Parameters:
        * **bn** (*pyAgrum.BayesNet*) -- a Bayesian network
"
